experiment5/data/clean/03-06-2023_voltage-ch2_trial-two.csv

Record Length,2500,Points
Sample Interval,4.00E-05,s
Trigger Point,1.03E+03,Samples
,,
,,
,,
Source,CH2,
Vertical Units,Volts,
Vertical Scale,5.00E-02,
Vertical Offset,0,
Horizontal Units,s,
Horizontal Scale,1.00E-02,
Pt Fmt,Y,
Yzero,-26.72,
Probe Atten,1,
,,
Note,TDS 1002B - 10:36:26 AM   3/6/2023,
,,
seconds,voltage,
-0.04099999741,1.32400010000,
-0.04095999897,1.32400010000,
-0.04091999680,1.32200000000,
-0.04087999836,1.32400010000,
-0.04083999619,1.32200000000,
-0.04079999775,1.32200000000,
-0.04075999558,1.32200000000,
-0.04071999714,1.32200000000,
-0.04067999870,1.32200000000,
-0.04063999653,1.32200000000,
-0.04059999809,1.32000010000,
-0.04055999592,1.32200000000,
-0.04051999748,1.32200000000,
-0.04047999904,1.32200000000,
-0.04043999687,1.32400010000,
-0.04039999843,1.32200000000,
-0.04035999626,1.32200000000,
-0.04031999782,1.32000010000,
-0.04027999565,1.32200000000,
-0.04023999721,1.32000010000,
-0.04019999877,1.32000010000,
-0.04015999660,1.32200000000,
-0.04011999816,1.32000010000,
-0.04007999599,1.32200000000,
-0.04003999755,1.32000010000,
-0.03999999911,1.32000010000,
-0.03995999694,1.32000010000,
-0.03991999850,1.32000010000,
-0.03987999633,1.32000010000,
-0.03983999789,1.32000010000,
-0.03979999572,1.32200000000,
-0.03975999728,1.32000010000,
-0.03971999884,1.32000010000,
-0.03967999667,1.32000010000,
-0.03963999823,1.32000010000,
-0.03959999606,1.31800010000,
-0.03955999762,1.32000010000,
-0.03951999918,1.32000010000,
-0.03947999701,1.32000010000,
-0.03943999857,1.32000010000,
-0.03939999640,1.32000010000,
-0.03935999796,1.31800010000,
-0.03931999579,1.31800010000,
-0.03927999735,1.32000010000,
-0.03923999891,1.31800010000,
-0.03919999674,1.31800010000,
-0.03915999830,1.32000010000,
-0.03911999613,1.31800010000,
-0.03907999769,1.31600010000,
-0.03903999925,1.31600010000,
-0.03899999708,1.32000010000,
-0.03895999864,1.31800010000,
-0.03891999647,1.32000010000,
-0.03887999803,1.31800010000,
-0.03883999586,1.31800010000,
-0.03879999742,1.31800010000,
-0.03875999898,1.31800010000,
-0.03871999681,1.31800010000,
-0.03867999837,1.31800010000,
-0.03863999620,1.31800010000,
-0.03859999776,1.31600010000,
-0.03855999932,1.31600010000,
-0.03851999715,1.31800010000,
-0.03847999871,1.31800010000,
-0.03843999654,1.31600010000,
-0.03839999810,1.31600010000,
-0.03835999593,1.31600010000,
-0.03831999749,1.31800010000,
-0.03827999905,1.31600010000,
-0.03823999688,1.31600010000,
-0.03819999844,1.31600010000,
-0.03815999627,1.31600010000,
-0.03811999783,1.31600010000,
-0.03807999566,1.31600010000,
-0.03803999722,1.31600010000,
-0.03799999878,1.31600010000,
-0.03795999661,1.31600010000,
-0.03791999817,1.31600010000,
-0.03787999600,1.31600010000,
-0.03783999756,1.31600010000,
-0.03779999912,1.31600010000,
-0.03775999695,1.31400000000,
-0.03771999851,1.31400000000,
-0.03767999634,1.31600010000,
-0.03763999790,1.31400000000,
-0.03759999573,1.31400000000,
-0.03755999729,1.31400000000,
-0.03751999885,1.31400000000,
-0.03747999668,1.31400000000,
-0.03743999824,1.31400000000,
-0.03739999607,1.31400000000,
-0.03735999763,1.31400000000,
-0.03731999919,1.31400000000,
-0.03727999702,1.31400000000,
-0.03723999858,1.31400000000,
-0.03719999641,1.31400000000,
-0.03715999797,1.31400000000,
-0.03711999580,1.31200000000,
-0.03707999736,1.31400000000,
-0.03703999892,1.31200000000,
-0.03699999675,1.31400000000,
-0.03695999831,1.31200000000,
-0.03691999614,1.31400000000,
-0.03687999770,1.31400000000,
-0.03683999926,1.31200000000,
-0.03679999709,1.31200000000,
-0.03675999865,1.31000010000,
-0.03671999648,1.31200000000,
-0.03667999804,1.31000010000,
-0.03663999587,1.31200000000,
-0.03659999743,1.31200000000,
-0.03655999899,1.31200000000,
-0.03651999682,1.31200000000,
-0.03647999838,1.31200000000,
-0.03643999621,1.31000010000,
-0.03639999777,1.31000010000,
-0.03635999933,1.31200000000,
-0.03631999716,1.31200000000,
-0.03627999872,1.31000010000,
-0.03623999655,1.31000010000,
-0.03619999811,1.31200000000,
-0.03615999594,1.31000010000,
-0.03611999750,1.31000010000,
-0.03607999906,1.31000010000,
-0.03603999689,1.31000010000,
-0.03599999845,1.31000010000,
-0.03595999628,1.31000010000,
-0.03591999784,1.31000010000,
-0.03587999940,1.31000010000,
-0.03583999723,1.31000010000,
-0.03579999879,1.30800010000,
-0.03575999662,1.31000010000,
-0.03571999818,1.31000010000,
-0.03567999601,1.31000010000,
-0.03563999757,1.31000010000,
-0.03559999913,1.30800010000,
-0.03555999696,1.31000010000,
-0.03551999852,1.30800010000,
-0.03547999635,1.30800010000,
-0.03543999791,1.31000010000,
-0.03539999574,1.30800010000,
-0.03535999730,1.30800010000,
-0.03531999886,1.31000010000,
-0.03527999669,1.30800010000,
-0.03523999825,1.30800010000,
-0.03519999608,1.30800010000,
-0.03515999764,1.30800010000,
-0.03511999920,1.30800010000,
-0.03507999703,1.30800010000,
-0.03503999859,1.30800010000,
-0.03499999642,1.30800010000,
-0.03495999798,1.30800010000,
-0.03491999581,1.30800010000,
-0.03487999737,1.31000010000,
-0.03483999893,1.30800010000,
-0.03479999676,1.30800010000,
-0.03475999832,1.30800010000,
-0.03471999615,1.30800010000,
-0.03467999771,1.30800010000,
-0.03463999927,1.30800010000,
-0.03459999710,1.30800010000,
-0.03455999866,1.30800010000,
-0.03451999649,1.30800010000,
-0.03447999805,1.30800010000,
-0.03443999588,1.31000010000,
-0.03439999744,1.30800010000,
-0.03435999900,1.30800010000,
-0.03431999683,1.31000010000,
-0.03427999839,1.31000010000,
-0.03423999622,1.30800010000,
-0.03419999778,1.30800010000,
-0.03415999934,1.30800010000,
-0.03411999717,1.31000010000,
-0.03407999873,1.30800010000,
-0.03403999656,1.30800010000,
-0.03399999812,1.30800010000,
-0.03395999596,1.30800010000,
-0.03391999751,1.31000010000,
-0.03387999907,1.31200000000,
-0.03383999690,1.31000010000,
-0.03379999846,1.31000010000,
-0.03375999629,1.31000010000,
-0.03371999785,1.31200000000,
-0.03367999941,1.31000010000,
-0.03363999724,1.30800010000,
-0.03359999880,1.31000010000,
-0.03355999663,1.31000010000,
-0.03351999819,1.31000010000,
-0.03347999603,1.30800010000,
-0.03343999758,1.31000010000,
-0.03339999914,1.31000010000,
-0.03335999697,1.31200000000,
-0.03331999853,1.31000010000,
-0.03327999637,1.31200000000,
-0.03323999792,1.31000010000,
-0.03319999576,1.31000010000,
-0.03315999731,1.31200000000,
-0.03311999887,1.31200000000,
-0.03307999671,1.31200000000,
-0.03303999826,1.31000010000,
-0.03299999610,1.31200000000,
-0.03295999765,1.31200000000,
-0.03291999921,1.31200000000,
-0.03287999704,1.31400000000,
-0.03283999860,1.31400000000,
-0.03279999644,1.31400000000,
-0.03275999799,1.31400000000,
-0.03271999583,1.31200000000,
-0.03267999738,1.31400000000,
-0.03263999894,1.31200000000,
-0.03259999678,1.31200000000,
-0.03255999833,1.31400000000,
-0.03251999617,1.31400000000,
-0.03247999772,1.31400000000,
-0.03243999928,1.31200000000,
-0.03239999712,1.31200000000,
-0.03235999867,1.31400000000,
-0.03231999651,1.31200000000,
-0.03227999806,1.31400000000,
-0.03223999590,1.31400000000,
-0.03219999745,1.31400000000,
-0.03215999901,1.31400000000,
-0.03211999685,1.31600010000,
-0.03207999840,1.31600010000,
-0.03203999624,1.31400000000,
-0.03199999779,1.31200000000,
-0.03195999935,1.31400000000,
-0.03191999719,1.31400000000,
-0.03187999874,1.31600010000,
-0.03183999658,1.31600010000,
-0.03179999813,1.31400000000,
-0.03175999597,1.31400000000,
-0.03171999753,1.31400000000,
-0.03167999908,1.31600010000,
-0.03163999692,1.31600010000,
-0.03159999847,1.31600010000,
-0.03155999631,1.31400000000,
-0.03151999786,1.31600010000,
-0.03147999942,1.31600010000,
-0.03143999726,1.31400000000,
-0.03139999881,1.31400000000,
-0.03135999665,1.31600010000,
-0.03131999820,1.31600010000,
-0.03127999604,1.31600010000,
-0.03123999760,1.31600010000,
-0.03119999729,1.31800010000,
-0.03115999699,1.31600010000,
-0.03111999854,1.31600010000,
-0.03107999824,1.31600010000,
-0.03103999794,1.31600010000,
-0.03099999763,1.31600010000,
-0.03095999733,1.31800010000,
-0.03091999702,1.31600010000,
-0.03087999858,1.31600010000,
-0.03083999828,1.31600010000,
-0.03079999797,1.31800010000,
-0.03075999767,1.31800010000,
-0.03071999736,1.31800010000,
-0.03067999706,1.31800010000,
-0.03063999675,1.31600010000,
-0.03059999831,1.31600010000,
-0.03055999801,1.31800010000,
-0.03051999770,1.31800010000,
-0.03047999740,1.31800010000,
-0.03043999709,1.31800010000,
-0.03039999679,1.31800010000,
-0.03035999835,1.32000010000,
-0.03031999804,1.31800010000,
-0.03027999774,1.32000010000,
-0.03023999743,1.32000010000,
-0.03019999713,1.32000010000,
-0.03015999682,1.31800010000,
-0.03011999838,1.32000010000,
-0.03007999808,1.32000010000,
-0.03003999777,1.31800010000,
-0.02999999747,1.32000010000,
-0.02995999716,1.32000010000,
-0.02991999686,1.32000010000,
-0.02987999842,1.32000010000,
-0.02983999811,1.32000010000,
-0.02979999781,1.31800010000,
-0.02975999750,1.32000010000,
-0.02971999720,1.32000010000,
-0.02967999689,1.32000010000,
-0.02963999845,1.32000010000,
-0.02959999815,1.32000010000,
-0.02955999784,1.32000010000,
-0.02951999754,1.32000010000,
-0.02947999723,1.32200000000,
-0.02943999693,1.32000010000,
-0.02939999849,1.32000010000,
-0.02935999818,1.32000010000,
-0.02931999788,1.32000010000,
-0.02927999757,1.32200000000,
-0.02923999727,1.32200000000,
-0.02919999696,1.32200000000,
-0.02915999852,1.32200000000,
-0.02911999822,1.32200000000,
-0.02907999791,1.32400010000,
-0.02903999761,1.32200000000,
-0.02899999730,1.32200000000,
-0.02895999700,1.32400010000,
-0.02891999856,1.32200000000,
-0.02887999825,1.32400010000,
-0.02883999795,1.32400010000,
-0.02879999764,1.32200000000,
-0.02875999734,1.32200000000,
-0.02871999703,1.32200000000,
-0.02867999859,1.32200000000,
-0.02863999829,1.32400010000,
-0.02859999798,1.32000010000,
-0.02855999768,1.32400010000,
-0.02851999737,1.32200000000,
-0.02847999707,1.32200000000,
-0.02843999863,1.32400010000,
-0.02839999832,1.32400010000,
-0.02835999802,1.32400010000,
-0.02831999771,1.32400010000,
-0.02827999741,1.32400010000,
-0.02823999710,1.32600010000,
-0.02819999680,1.32400010000,
-0.02815999836,1.32400010000,
-0.02811999805,1.32400010000,
-0.02807999775,1.32400010000,
-0.02803999744,1.32600010000,
-0.02799999714,1.32200000000,
-0.02795999683,1.32400010000,
-0.02791999839,1.32600010000,
-0.02787999809,1.32400010000,
-0.02783999778,1.32400010000,
-0.02779999748,1.32600010000,
-0.02775999717,1.32400010000,
-0.02771999687,1.32400010000,
-0.02767999843,1.32600010000,
-0.02763999812,1.32600010000,
-0.02759999782,1.32400010000,
-0.02755999751,1.32600010000,
-0.02751999721,1.32600010000,
-0.02747999690,1.32600010000,
-0.02743999846,1.32400010000,
-0.02739999816,1.32400010000,
-0.02735999785,1.32600010000,
-0.02731999755,1.32600010000,
-0.02727999724,1.32600010000,
-0.02723999694,1.32600010000,
-0.02719999850,1.32800010000,
-0.02715999819,1.32600010000,
-0.02711999789,1.32600010000,
-0.02707999758,1.32600010000,
-0.02703999728,1.32600010000,
-0.02699999698,1.32600010000,
-0.02695999853,1.32600010000,
-0.02691999823,1.32800010000,
-0.02687999792,1.32600010000,
-0.02683999762,1.32600010000,
-0.02679999731,1.32600010000,
-0.02675999701,1.32800010000,
-0.02671999857,1.33200000000,
-0.02667999826,1.32600010000,
-0.02663999796,1.32600010000,
-0.02659999765,1.32600010000,
-0.02655999735,1.32800010000,
-0.02651999705,1.32800010000,
-0.02647999860,1.32800010000,
-0.02643999830,1.32800010000,
-0.02639999799,1.32800010000,
-0.02635999769,1.32800010000,
-0.02631999739,1.32800010000,
-0.02627999708,1.32800010000,
-0.02623999864,1.32600010000,
-0.02619999833,1.32800010000,
-0.02615999803,1.32800010000,
-0.02611999772,1.32600010000,
-0.02607999742,1.32800010000,
-0.02603999712,1.32800010000,
-0.02599999867,1.32800010000,
-0.02595999837,1.32600010000,
-0.02591999806,1.32800010000,
-0.02587999776,1.32600010000,
-0.02583999746,1.32600010000,
-0.02579999715,1.32800010000,
-0.02575999871,1.33000000000,
-0.02571999840,1.32800010000,
-0.02567999810,1.32800010000,
-0.02563999780,1.32800010000,
-0.02559999749,1.32600010000,
-0.02555999719,1.32800010000,
-0.02551999688,1.32800010000,
-0.02547999844,1.32800010000,
-0.02543999813,1.32800010000,
-0.02539999783,1.32800010000,
-0.02535999753,1.32800010000,
-0.02531999722,1.32600010000,
-0.02527999692,1.32800010000,
-0.02523999847,1.32600010000,
-0.02519999817,1.32600010000,
-0.02515999787,1.33000000000,
-0.02511999756,1.32800010000,
-0.02507999726,1.32600010000,
-0.02503999695,1.32400010000,
-0.02499999851,1.32600010000,
-0.02495999821,1.32600010000,
-0.02491999790,1.32600010000,
-0.02487999760,1.32400010000,
-0.02483999729,1.32600010000,
-0.02479999699,1.32400010000,
-0.02475999855,1.32400010000,
-0.02471999824,1.32600010000,
-0.02467999794,1.32800010000,
-0.02463999763,1.32600010000,
-0.02459999733,1.32400010000,
-0.02455999702,1.32400010000,
-0.02451999858,1.32600010000,
-0.02447999828,1.32400010000,
-0.02443999797,1.32200000000,
-0.02439999767,1.32600010000,
-0.02435999736,1.32200000000,
-0.02431999706,1.32400010000,
-0.02427999862,1.32400010000,
-0.02423999831,1.32400010000,
-0.02419999801,1.32200000000,
-0.02415999770,1.32400010000,
-0.02411999740,1.32200000000,
-0.02407999709,1.32200000000,
-0.02403999865,1.32200000000,
-0.02399999835,1.32200000000,
-0.02395999804,1.32200000000,
-0.02391999774,1.32200000000,
-0.02387999743,1.32000010000,
-0.02383999713,1.32000010000,
-0.02379999869,1.32000010000,
-0.02375999838,1.32000010000,
-0.02371999808,1.32000010000,
-0.02367999777,1.31800010000,
-0.02363999747,1.31800010000,
-0.02359999716,1.31800010000,
-0.02355999872,1.31600010000,
-0.02351999842,1.31800010000,
-0.02347999811,1.31600010000,
-0.02343999781,1.32000010000,
-0.02339999750,1.31600010000,
-0.02335999720,1.31600010000,
-0.02331999876,1.31600010000,
-0.02327999845,1.31600010000,
-0.02323999815,1.31600010000,
-0.02319999784,1.31600010000,
-0.02315999754,1.31400000000,
-0.02311999723,1.31600010000,
-0.02307999879,1.31600010000,
-0.02303999849,1.31400000000,
-0.02299999818,1.31400000000,
-0.02295999788,1.31400000000,
-0.02291999757,1.31400000000,
-0.02287999727,1.31400000000,
-0.02283999696,1.31600010000,
-0.02279999852,1.31200000000,
-0.02275999822,1.31000010000,
-0.02271999791,1.31200000000,
-0.02267999761,1.31200000000,
-0.02263999730,1.31000010000,
-0.02259999700,1.31000010000,
-0.02255999856,1.31000010000,
-0.02251999825,1.31000010000,
-0.02247999795,1.31200000000,
-0.02243999764,1.31000010000,
-0.02239999734,1.31200000000,
-0.02235999703,1.30800010000,
-0.02231999859,1.30800010000,
-0.02227999829,1.30800010000,
-0.02223999798,1.30800010000,
-0.02219999768,1.30800010000,
-0.02215999737,1.30800010000,
-0.02211999707,1.30800010000,
-0.02207999863,1.30800010000,
-0.02203999832,1.30800010000,
-0.02199999802,1.30800010000,
-0.02195999771,1.30800010000,
-0.02191999741,1.30800010000,
-0.02187999710,1.30800010000,
-0.02183999866,1.30600010000,
-0.02179999836,1.30400000000,
-0.02175999805,1.30600010000,
-0.02171999775,1.30800010000,
-0.02167999744,1.30600010000,
-0.02163999714,1.30400000000,
-0.02159999870,1.30600010000,
-0.02155999839,1.30600010000,
-0.02151999809,1.30400000000,
-0.02147999778,1.30600010000,
-0.02143999748,1.30600010000,
-0.02139999717,1.30600010000,
-0.02135999873,1.30600010000,
-0.02131999843,1.30600010000,
-0.02127999812,1.30600010000,
-0.02123999782,1.30600010000,
-0.02119999751,1.30400000000,
-0.02115999721,1.30600010000,
-0.02111999877,1.30400000000,
-0.02107999846,1.30600010000,
-0.02103999816,1.30600010000,
-0.02099999785,1.30600010000,
-0.02095999755,1.30400000000,
-0.02091999725,1.30400000000,
-0.02087999880,1.30400000000,
-0.02083999850,1.30400000000,
-0.02079999819,1.30600010000,
-0.02075999789,1.30400000000,
-0.02071999758,1.30600010000,
-0.02067999728,1.30600010000,
-0.02063999884,1.30400000000,
-0.02059999853,1.30600010000,
-0.02055999823,1.30600010000,
-0.02051999792,1.30400000000,
-0.02047999762,1.30600010000,
-0.02043999732,1.30400000000,
-0.02039999701,1.30600010000,
-0.02035999857,1.30600010000,
-0.02031999826,1.30600010000,
-0.02027999796,1.30600010000,
-0.02023999766,1.30600010000,
-0.02019999735,1.30600010000,
-0.02015999705,1.30600010000,
-0.02011999860,1.30800010000,
-0.02007999830,1.30800010000,
-0.02003999800,1.30800010000,
-0.01999999770,1.31000010000,
-0.01995999740,1.31000010000,
-0.01991999710,1.30800010000,
-0.01987999860,1.31000010000,
-0.01983999830,1.31000010000,
-0.01979999800,1.31000010000,
-0.01975999770,1.31000010000,
-0.01971999740,1.31200000000,
-0.01967999710,1.31200000000,
-0.01963999870,1.31200000000,
-0.01959999840,1.31200000000,
-0.01955999810,1.31200000000,
-0.01951999780,1.31200000000,
-0.01947999750,1.31600010000,
-0.01943999720,1.31400000000,
-0.01939999870,1.31400000000,
-0.01935999840,1.31400000000,
-0.01931999810,1.31600010000,
-0.01927999780,1.31600010000,
-0.01923999750,1.31600010000,
-0.01919999720,1.31800010000,
-0.01915999870,1.31600010000,
-0.01911999840,1.31600010000,
-0.01907999810,1.31800010000,
-0.01903999780,1.32000010000,
-0.01899999750,1.32200000000,
-0.01895999720,1.32000010000,
-0.01891999880,1.32200000000,
-0.01887999850,1.32400010000,
-0.01883999820,1.32200000000,
-0.01879999790,1.32200000000,
-0.01875999760,1.32400010000,
-0.01871999730,1.33000000000,
-0.01867999880,1.32400010000,
-0.01863999850,1.32600010000,
-0.01859999820,1.32800010000,
-0.01855999790,1.32400010000,
-0.01851999760,1.32600010000,
-0.01847999730,1.33000000000,
-0.01843999890,1.33000000000,
-0.01839999850,1.32600010000,
-0.01835999820,1.33000000000,
-0.01831999790,1.32800010000,
-0.01827999760,1.33000000000,
-0.01823999730,1.33000000000,
-0.01819999890,1.33000000000,
-0.01815999860,1.33200000000,
-0.01811999830,1.33400010000,
-0.01807999800,1.33200000000,
-0.01803999770,1.33200000000,
-0.01799999740,1.33400010000,
-0.01795999710,1.33400010000,
-0.01791999860,1.33400010000,
-0.01787999830,1.33400010000,
-0.01783999800,1.33600010000,
-0.01779999770,1.33600010000,
-0.01775999740,1.33800010000,
-0.01771999710,1.33600010000,
-0.01767999870,1.33800010000,
-0.01763999830,1.33800010000,
-0.01759999800,1.33800010000,
-0.01755999770,1.33800010000,
-0.01751999740,1.33200000000,
-0.01747999710,1.33800010000,
-0.01743999870,1.34000000000,
-0.01739999840,1.34000000000,
-0.01735999810,1.34000000000,
-0.01731999780,1.34200000000,
-0.01727999750,1.34200000000,
-0.01723999720,1.34200000000,
-0.01719999870,1.34200000000,
-0.01715999840,1.34400010000,
-0.01711999810,1.34400010000,
-0.01707999780,1.34400010000,
-0.01703999750,1.34400010000,
-0.01699999720,1.34200000000,
-0.01695999880,1.34400010000,
-0.01691999850,1.34400010000,
-0.01687999810,1.34400010000,
-0.01683999780,1.34600010000,
-0.01679999750,1.34800000000,
-0.01675999720,1.34600010000,
-0.01671999880,1.34600010000,
-0.01667999850,1.34600010000,
-0.01663999820,1.34600010000,
-0.01659999790,1.34800000000,
-0.01655999760,1.34800000000,
-0.01651999730,1.34800000000,
-0.01647999880,1.34800000000,
-0.01643999850,1.35000000000,
-0.01639999820,1.34600010000,
-0.01635999790,1.35000000000,
-0.01631999760,1.35000000000,
-0.01627999730,1.35000000000,
-0.01623999890,1.35000000000,
-0.01619999860,1.35000000000,
-0.01615999830,1.35000000000,
-0.01611999790,1.35000000000,
-0.01607999760,1.35200010000,
-0.01603999730,1.35000000000,
-0.01599999890,1.35200010000,
-0.01595999860,1.35400010000,
-0.01591999830,1.35400010000,
-0.01587999800,1.35200010000,
-0.01583999770,1.35400010000,
-0.01579999740,1.35200010000,
-0.01575999890,1.35200010000,
-0.01571999860,1.35200010000,
-0.01567999830,1.35200010000,
-0.01563999800,1.35400010000,
-0.01559999770,1.35400010000,
-0.01555999830,1.35400010000,
-0.01551999800,1.35400010000,
-0.01547999770,1.35400010000,
-0.01543999840,1.35400010000,
-0.01539999810,1.35600010000,
-0.01535999770,1.35400010000,
-0.01531999840,1.35400010000,
-0.01527999810,1.35400010000,
-0.01523999780,1.35200010000,
-0.01519999840,1.35400010000,
-0.01515999810,1.35600010000,
-0.01511999780,1.35400010000,
-0.01507999840,1.35600010000,
-0.01503999810,1.35400010000,
-0.01499999780,1.35600010000,
-0.01495999840,1.35600010000,
-0.01491999810,1.35600010000,
-0.01487999780,1.35600010000,
-0.01483999840,1.35600010000,
