experiment5/data/raw/03-06-2023_trial3.csv

Record Length,2500,Points,-37.59999946E-3,239.99999464E-3,,Record Length,2500,Points,-37.59999946E-3,1.3140000,
Sample Interval,39.99999899E-6,s,-37.56000102E-3,239.99999464E-3,,Sample Interval,39.99999899E-6,s,-37.56000102E-3,1.3140000,
Trigger Point,940.000010186,Samples,-37.51999885E-3,319.99999285E-3,,Trigger Point,940.000010186,Samples,-37.51999885E-3,1.3140000,
,,,-37.48000041E-3,239.99999464E-3,,,,,-37.48000041E-3,1.3140000,
,,,-37.43999824E-3,239.99999464E-3,,,,,-37.43999824E-3,1.3160001,
,,,-37.39999980E-3,239.99999464E-3,,,,,-37.39999980E-3,1.3140000,
Source,CH1,,-37.35999763E-3,239.99999464E-3,,Source,CH2,,-37.35999763E-3,1.3140000,
Vertical Units,Volts,,-37.31999919E-3,239.99999464E-3,,Vertical Units,Volts,,-37.31999919E-3,1.3140000,
Vertical Scale,2.0000000,,-37.28000075E-3,239.99999464E-3,,Vertical Scale,50.00000237E-3,,-37.28000075E-3,1.3140000,
Vertical Offset,0,,-37.23999858E-3,239.99999464E-3,,Vertical Offset,0,,-37.23999858E-3,1.3160001,
Horizontal Units,s,,-37.20000014E-3,239.99999464E-3,,Horizontal Units,s,,-37.20000014E-3,1.3120000,
Horizontal Scale,9.999999747E-3,,-37.15999797E-3,239.99999464E-3,,Horizontal Scale,9.999999747E-3,,-37.15999797E-3,1.3140000,
Pt Fmt,Y,,-37.11999953E-3,239.99999464E-3,,Pt Fmt,Y,,-37.11999953E-3,1.3140000,
Yzero,-2.5600000,,-37.08000109E-3,239.99999464E-3,,Yzero,-26.92000000,,-37.08000109E-3,1.3140000,
Probe Atten,1.000000,,-37.03999892E-3,239.99999464E-3,,Probe Atten,1.000000,,-37.03999892E-3,1.3140000,
,,,-37.00000048E-3,239.99999464E-3,,,,,-37.00000048E-3,1.3160001,
Note,TDS 1002B - 10:38:41 AM   3/6/2023,,-36.95999831E-3,239.99999464E-3,,Note,TDS 1002B - 10:38:41 AM   3/6/2023,,-36.95999831E-3,1.3140000,
,,,-36.91999987E-3,239.99999464E-3,,,,,-36.91999987E-3,1.3140000,
,,,-36.87999770E-3,239.99999464E-3,,,,,-36.87999770E-3,1.3120000,
,,,-36.83999926E-3,159.99999642E-3,,,,,-36.83999926E-3,1.3140000,
,,,-36.80000082E-3,159.99999642E-3,,,,,-36.80000082E-3,1.3140000,
,,,-36.75999865E-3,159.99999642E-3,,,,,-36.75999865E-3,1.3140000,
,,,-36.72000021E-3,159.99999642E-3,,,,,-36.72000021E-3,1.3120000,
,,,-36.67999804E-3,159.99999642E-3,,,,,-36.67999804E-3,1.3120000,
,,,-36.63999960E-3,159.99999642E-3,,,,,-36.63999960E-3,1.3140000,
,,,-36.60000116E-3,159.99999642E-3,,,,,-36.60000116E-3,1.3120000,
,,,-36.55999899E-3,159.99999642E-3,,,,,-36.55999899E-3,1.3140000,
,,,-36.52000055E-3,159.99999642E-3,,,,,-36.52000055E-3,1.3140000,
,,,-36.47999838E-3,159.99999642E-3,,,,,-36.47999838E-3,1.3120000,
,,,-36.43999994E-3,159.99999642E-3,,,,,-36.43999994E-3,1.3120000,
,,,-36.39999777E-3,159.99999642E-3,,,,,-36.39999777E-3,1.3120000,
,,,-36.35999933E-3,79.999998212E-3,,,,,-36.35999933E-3,1.3120000,
,,,-36.32000089E-3,159.99999642E-3,,,,,-36.32000089E-3,1.3120000,
,,,-36.27999872E-3,159.99999642E-3,,,,,-36.27999872E-3,1.3120000,
,,,-36.24000028E-3,159.99999642E-3,,,,,-36.24000028E-3,1.3120000,
,,,-36.19999811E-3,79.999998212E-3,,,,,-36.19999811E-3,1.3100001,
,,,-36.15999967E-3,79.999998212E-3,,,,,-36.15999967E-3,1.3120000,
,,,-36.12000123E-3,79.999998212E-3,,,,,-36.12000123E-3,1.3120000,
,,,-36.07999906E-3,159.99999642E-3,,,,,-36.07999906E-3,1.3120000,
,,,-36.04000062E-3,79.999998212E-3,,,,,-36.04000062E-3,1.3120000,
,,,-35.99999845E-3,79.999998212E-3,,,,,-35.99999845E-3,1.3100001,
,,,-35.96000001E-3,79.999998212E-3,,,,,-35.96000001E-3,1.3120000,
,,,-35.91999784E-3,79.999998212E-3,,,,,-35.91999784E-3,1.3100001,
,,,-35.87999940E-3,79.999998212E-3,,,,,-35.87999940E-3,1.3100001,
,,,-35.84000096E-3,79.999998212E-3,,,,,-35.84000096E-3,1.3080001,
,,,-35.79999879E-3,79.999998212E-3,,,,,-35.79999879E-3,1.3100001,
,,,-35.76000035E-3,79.999998212E-3,,,,,-35.76000035E-3,1.3100001,
,,,-35.71999818E-3,79.999998212E-3,,,,,-35.71999818E-3,1.3100001,
,,,-35.67999974E-3,79.999998212E-3,,,,,-35.67999974E-3,1.3080001,
,,,-35.64000130E-3,0.0,,,,,-35.64000130E-3,1.3100001,
,,,-35.59999913E-3,0.0,,,,,-35.59999913E-3,1.3100001,
,,,-35.56000069E-3,0.0,,,,,-35.56000069E-3,1.3100001,
,,,-35.51999852E-3,0.0,,,,,-35.51999852E-3,1.3100001,
,,,-35.48000008E-3,0.0,,,,,-35.48000008E-3,1.3100001,
,,,-35.43999791E-3,0.0,,,,,-35.43999791E-3,1.3080001,
,,,-35.39999947E-3,0.0,,,,,-35.39999947E-3,1.3100001,
,,,-35.36000103E-3,79.999998212E-3,,,,,-35.36000103E-3,1.3080001,
,,,-35.31999886E-3,0.0,,,,,-35.31999886E-3,1.3100001,
,,,-35.28000042E-3,0.0,,,,,-35.28000042E-3,1.3080001,
,,,-35.23999825E-3,0.0,,,,,-35.23999825E-3,1.3100001,
,,,-35.19999981E-3,0.0,,,,,-35.19999981E-3,1.3080001,
,,,-35.16000137E-3,0.0,,,,,-35.16000137E-3,1.3100001,
,,,-35.11999920E-3,0.0,,,,,-35.11999920E-3,1.3080001,
,,,-35.08000076E-3,-79.999998212E-3,,,,,-35.08000076E-3,1.3100001,
,,,-35.03999859E-3,0.0,,,,,-35.03999859E-3,1.3100001,
,,,-35.00000015E-3,-79.999998212E-3,,,,,-35.00000015E-3,1.3100001,
,,,-34.95999798E-3,-79.999998212E-3,,,,,-34.95999798E-3,1.3100001,
,,,-34.91999954E-3,0.0,,,,,-34.91999954E-3,1.3080001,
,,,-34.88000110E-3,0.0,,,,,-34.88000110E-3,1.3100001,
,,,-34.83999893E-3,-79.999998212E-3,,,,,-34.83999893E-3,1.3080001,
,,,-34.80000049E-3,-79.999998212E-3,,,,,-34.80000049E-3,1.3080001,
,,,-34.75999832E-3,0.0,,,,,-34.75999832E-3,1.3080001,
,,,-34.71999988E-3,-79.999998212E-3,,,,,-34.71999988E-3,1.3080001,
,,,-34.67999771E-3,0.0,,,,,-34.67999771E-3,1.3100001,
,,,-34.63999927E-3,0.0,,,,,-34.63999927E-3,1.3080001,
,,,-34.60000083E-3,0.0,,,,,-34.60000083E-3,1.3100001,
,,,-34.55999866E-3,0.0,,,,,-34.55999866E-3,1.3100001,
,,,-34.52000022E-3,0.0,,,,,-34.52000022E-3,1.3100001,
,,,-34.47999805E-3,0.0,,,,,-34.47999805E-3,1.3080001,
,,,-34.43999961E-3,0.0,,,,,-34.43999961E-3,1.3080001,
,,,-34.40000117E-3,0.0,,,,,-34.40000117E-3,1.3100001,
,,,-34.35999900E-3,0.0,,,,,-34.35999900E-3,1.3100001,
,,,-34.32000056E-3,0.0,,,,,-34.32000056E-3,1.3080001,
,,,-34.27999839E-3,0.0,,,,,-34.27999839E-3,1.3100001,
,,,-34.23999995E-3,0.0,,,,,-34.23999995E-3,1.3100001,
,,,-34.19999778E-3,0.0,,,,,-34.19999778E-3,1.3100001,
,,,-34.15999934E-3,0.0,,,,,-34.15999934E-3,1.3100001,
,,,-34.12000090E-3,79.999998212E-3,,,,,-34.12000090E-3,1.3100001,
,,,-34.07999873E-3,0.0,,,,,-34.07999873E-3,1.3100001,
,,,-34.04000029E-3,79.999998212E-3,,,,,-34.04000029E-3,1.3100001,
,,,-33.99999812E-3,0.0,,,,,-33.99999812E-3,1.3100001,
,,,-33.95999968E-3,79.999998212E-3,,,,,-33.95999968E-3,1.3120000,
,,,-33.92000124E-3,79.999998212E-3,,,,,-33.92000124E-3,1.3120000,
,,,-33.87999907E-3,79.999998212E-3,,,,,-33.87999907E-3,1.3120000,
,,,-33.84000063E-3,79.999998212E-3,,,,,-33.84000063E-3,1.3120000,
,,,-33.79999846E-3,79.999998212E-3,,,,,-33.79999846E-3,1.3120000,
,,,-33.76000002E-3,79.999998212E-3,,,,,-33.76000002E-3,1.3100001,
,,,-33.71999785E-3,79.999998212E-3,,,,,-33.71999785E-3,1.3100001,
,,,-33.67999941E-3,79.999998212E-3,,,,,-33.67999941E-3,1.3100001,
,,,-33.64000097E-3,79.999998212E-3,,,,,-33.64000097E-3,1.3100001,
,,,-33.59999880E-3,79.999998212E-3,,,,,-33.59999880E-3,1.3100001,
,,,-33.56000036E-3,79.999998212E-3,,,,,-33.56000036E-3,1.3120000,
,,,-33.51999819E-3,79.999998212E-3,,,,,-33.51999819E-3,1.3120000,
,,,-33.47999975E-3,79.999998212E-3,,,,,-33.47999975E-3,1.3120000,
,,,-33.44000131E-3,159.99999642E-3,,,,,-33.44000131E-3,1.3120000,
,,,-33.39999914E-3,79.999998212E-3,,,,,-33.39999914E-3,1.3100001,
,,,-33.36000070E-3,79.999998212E-3,,,,,-33.36000070E-3,1.3120000,
,,,-33.31999853E-3,159.99999642E-3,,,,,-33.31999853E-3,1.3120000,
,,,-33.28000009E-3,159.99999642E-3,,,,,-33.28000009E-3,1.3120000,
,,,-33.23999792E-3,159.99999642E-3,,,,,-33.23999792E-3,1.3120000,
,,,-33.19999948E-3,159.99999642E-3,,,,,-33.19999948E-3,1.3120000,
,,,-33.16000104E-3,159.99999642E-3,,,,,-33.16000104E-3,1.3140000,
,,,-33.11999887E-3,159.99999642E-3,,,,,-33.11999887E-3,1.3120000,
,,,-33.08000043E-3,159.99999642E-3,,,,,-33.08000043E-3,1.3140000,
,,,-33.03999826E-3,159.99999642E-3,,,,,-33.03999826E-3,1.3140000,
,,,-32.99999982E-3,239.99999464E-3,,,,,-32.99999982E-3,1.3120000,
,,,-32.96000138E-3,159.99999642E-3,,,,,-32.96000138E-3,1.3140000,
,,,-32.91999921E-3,159.99999642E-3,,,,,-32.91999921E-3,1.3120000,
,,,-32.88000077E-3,159.99999642E-3,,,,,-32.88000077E-3,1.3140000,
,,,-32.83999860E-3,159.99999642E-3,,,,,-32.83999860E-3,1.3140000,
,,,-32.80000016E-3,239.99999464E-3,,,,,-32.80000016E-3,1.3140000,
,,,-32.75999799E-3,239.99999464E-3,,,,,-32.75999799E-3,1.3140000,
,,,-32.71999955E-3,239.99999464E-3,,,,,-32.71999955E-3,1.3140000,
,,,-32.68000111E-3,239.99999464E-3,,,,,-32.68000111E-3,1.3140000,
,,,-32.63999894E-3,239.99999464E-3,,,,,-32.63999894E-3,1.3140000,
,,,-32.60000050E-3,239.99999464E-3,,,,,-32.60000050E-3,1.3120000,
,,,-32.55999833E-3,239.99999464E-3,,,,,-32.55999833E-3,1.3140000,
,,,-32.51999989E-3,239.99999464E-3,,,,,-32.51999989E-3,1.3140000,
,,,-32.48000145E-3,239.99999464E-3,,,,,-32.48000145E-3,1.3140000,
,,,-32.43999928E-3,239.99999464E-3,,,,,-32.43999928E-3,1.3160001,
,,,-32.40000084E-3,239.99999464E-3,,,,,-32.40000084E-3,1.3140000,
,,,-32.35999867E-3,239.99999464E-3,,,,,-32.35999867E-3,1.3140000,
,,,-32.32000023E-3,239.99999464E-3,,,,,-32.32000023E-3,1.3140000,
,,,-32.27999806E-3,239.99999464E-3,,,,,-32.27999806E-3,1.3140000,
,,,-32.23999962E-3,239.99999464E-3,,,,,-32.23999962E-3,1.3140000,
,,,-32.20000118E-3,239.99999464E-3,,,,,-32.20000118E-3,1.3160001,
,,,-32.15999901E-3,239.99999464E-3,,,,,-32.15999901E-3,1.3160001,
,,,-32.12000057E-3,319.99999285E-3,,,,,-32.12000057E-3,1.3120000,
,,,-32.07999840E-3,319.99999285E-3,,,,,-32.07999840E-3,1.3140000,
,,,-32.03999996E-3,239.99999464E-3,,,,,-32.03999996E-3,1.3160001,
,,,-31.99999779E-3,319.99999285E-3,,,,,-31.99999779E-3,1.3160001,
,,,-31.95999935E-3,319.99999285E-3,,,,,-31.95999935E-3,1.3160001,
,,,-31.92000091E-3,319.99999285E-3,,,,,-31.92000091E-3,1.3140000,
,,,-31.87999874E-3,319.99999285E-3,,,,,-31.87999874E-3,1.3160001,
,,,-31.84000030E-3,239.99999464E-3,,,,,-31.84000030E-3,1.3160001,
,,,-31.79999813E-3,319.99999285E-3,,,,,-31.79999813E-3,1.3160001,
,,,-31.75999969E-3,239.99999464E-3,,,,,-31.75999969E-3,1.3160001,
,,,-31.72000125E-3,319.99999285E-3,,,,,-31.72000125E-3,1.3140000,
,,,-31.67999908E-3,319.99999285E-3,,,,,-31.67999908E-3,1.3160001,
,,,-31.64000064E-3,319.99999285E-3,,,,,-31.64000064E-3,1.3160001,
,,,-31.59999847E-3,319.99999285E-3,,,,,-31.59999847E-3,1.3160001,
,,,-31.56000003E-3,319.99999285E-3,,,,,-31.56000003E-3,1.3160001,
,,,-31.51999786E-3,319.99999285E-3,,,,,-31.51999786E-3,1.3160001,
,,,-31.47999942E-3,319.99999285E-3,,,,,-31.47999942E-3,1.3160001,
,,,-31.44000098E-3,319.99999285E-3,,,,,-31.44000098E-3,1.3160001,
,,,-31.39999881E-3,319.99999285E-3,,,,,-31.39999881E-3,1.3180001,
,,,-31.36000037E-3,399.99997616E-3,,,,,-31.36000037E-3,1.3180001,
,,,-31.31999820E-3,399.99997616E-3,,,,,-31.31999820E-3,1.3160001,
,,,-31.27999976E-3,399.99997616E-3,,,,,-31.27999976E-3,1.3160001,
,,,-31.23999946E-3,319.99999285E-3,,,,,-31.23999946E-3,1.3180001,
,,,-31.19999915E-3,399.99997616E-3,,,,,-31.19999915E-3,1.3160001,
,,,-31.15999885E-3,399.99997616E-3,,,,,-31.15999885E-3,1.3160001,
,,,-31.12000041E-3,319.99999285E-3,,,,,-31.12000041E-3,1.3160001,
,,,-31.08000010E-3,399.99997616E-3,,,,,-31.08000010E-3,1.3180001,
,,,-31.03999980E-3,399.99997616E-3,,,,,-31.03999980E-3,1.3180001,
,,,-30.99999949E-3,399.99997616E-3,,,,,-30.99999949E-3,1.3180001,
,,,-30.95999919E-3,399.99997616E-3,,,,,-30.95999919E-3,1.3180001,
,,,-30.91999888E-3,399.99997616E-3,,,,,-30.91999888E-3,1.3200001,
,,,-30.88000044E-3,399.99997616E-3,,,,,-30.88000044E-3,1.3180001,
,,,-30.84000014E-3,399.99997616E-3,,,,,-30.84000014E-3,1.3180001,
,,,-30.79999983E-3,399.99997616E-3,,,,,-30.79999983E-3,1.3180001,
,,,-30.75999953E-3,399.99997616E-3,,,,,-30.75999953E-3,1.3180001,
,,,-30.71999922E-3,479.999989271E-3,,,,,-30.71999922E-3,1.3180001,
,,,-30.67999892E-3,479.999989271E-3,,,,,-30.67999892E-3,1.3200001,
,,,-30.64000048E-3,479.999989271E-3,,,,,-30.64000048E-3,1.3180001,
,,,-30.60000017E-3,399.99997616E-3,,,,,-30.60000017E-3,1.3180001,
,,,-30.55999987E-3,479.999989271E-3,,,,,-30.55999987E-3,1.3200001,
,,,-30.51999956E-3,479.999989271E-3,,,,,-30.51999956E-3,1.3180001,
,,,-30.47999926E-3,479.999989271E-3,,,,,-30.47999926E-3,1.3180001,
,,,-30.43999895E-3,479.999989271E-3,,,,,-30.43999895E-3,1.3200001,
,,,-30.40000051E-3,479.999989271E-3,,,,,-30.40000051E-3,1.3200001,
,,,-30.36000021E-3,479.999989271E-3,,,,,-30.36000021E-3,1.3180001,
,,,-30.31999990E-3,479.999989271E-3,,,,,-30.31999990E-3,1.3200001,
,,,-30.27999960E-3,479.999989271E-3,,,,,-30.27999960E-3,1.3180001,
,,,-30.23999929E-3,479.999989271E-3,,,,,-30.23999929E-3,1.3200001,
,,,-30.19999899E-3,479.999989271E-3,,,,,-30.19999899E-3,1.3200001,
,,,-30.16000055E-3,479.999989271E-3,,,,,-30.16000055E-3,1.3200001,
,,,-30.12000024E-3,479.999989271E-3,,,,,-30.12000024E-3,1.3180001,
,,,-30.07999994E-3,479.999989271E-3,,,,,-30.07999994E-3,1.3200001,
,,,-30.03999963E-3,479.999989271E-3,,,,,-30.03999963E-3,1.3180001,
,,,-29.99999933E-3,560.000002384E-3,,,,,-29.99999933E-3,1.3200001,
,,,-29.95999902E-3,479.999989271E-3,,,,,-29.95999902E-3,1.3200001,
,,,-29.92000058E-3,560.000002384E-3,,,,,-29.92000058E-3,1.3200001,
,,,-29.88000028E-3,560.000002384E-3,,,,,-29.88000028E-3,1.3220000,
,,,-29.83999997E-3,560.000002384E-3,,,,,-29.83999997E-3,1.3200001,
,,,-29.79999967E-3,560.000002384E-3,,,,,-29.79999967E-3,1.3180001,
,,,-29.75999936E-3,479.999989271E-3,,,,,-29.75999936E-3,1.3200001,
,,,-29.71999906E-3,560.000002384E-3,,,,,-29.71999906E-3,1.3200001,
,,,-29.67999876E-3,479.999989271E-3,,,,,-29.67999876E-3,1.3220000,
,,,-29.64000031E-3,479.999989271E-3,,,,,-29.64000031E-3,1.3220000,
,,,-29.60000001E-3,560.000002384E-3,,,,,-29.60000001E-3,1.3200001,
,,,-29.55999970E-3,560.000002384E-3,,,,,-29.55999970E-3,1.3220000,
,,,-29.51999940E-3,560.000002384E-3,,,,,-29.51999940E-3,1.3200001,
,,,-29.47999910E-3,560.000002384E-3,,,,,-29.47999910E-3,1.3220000,
,,,-29.43999879E-3,560.000002384E-3,,,,,-29.43999879E-3,1.3220000,
,,,-29.40000035E-3,560.000002384E-3,,,,,-29.40000035E-3,1.3220000,
,,,-29.36000004E-3,560.000002384E-3,,,,,-29.36000004E-3,1.3220000,
,,,-29.31999974E-3,560.000002384E-3,,,,,-29.31999974E-3,1.3220000,
,,,-29.27999943E-3,560.000002384E-3,,,,,-29.27999943E-3,1.3220000,
,,,-29.23999913E-3,560.000002384E-3,,,,,-29.23999913E-3,1.3220000,
,,,-29.19999883E-3,560.000002384E-3,,,,,-29.19999883E-3,1.3220000,
,,,-29.16000038E-3,560.000002384E-3,,,,,-29.16000038E-3,1.3220000,
,,,-29.12000008E-3,639.999985695E-3,,,,,-29.12000008E-3,1.3220000,
,,,-29.07999977E-3,560.000002384E-3,,,,,-29.07999977E-3,1.3220000,
,,,-29.03999947E-3,639.999985695E-3,,,,,-29.03999947E-3,1.3240001,
,,,-28.99999917E-3,560.000002384E-3,,,,,-28.99999917E-3,1.3240001,
,,,-28.95999886E-3,639.999985695E-3,,,,,-28.95999886E-3,1.3240001,
,,,-28.92000042E-3,639.999985695E-3,,,,,-28.92000042E-3,1.3220000,
,,,-28.88000011E-3,639.999985695E-3,,,,,-28.88000011E-3,1.3240001,
,,,-28.83999981E-3,639.999985695E-3,,,,,-28.83999981E-3,1.3240001,
,,,-28.79999951E-3,639.999985695E-3,,,,,-28.79999951E-3,1.3240001,
,,,-28.75999920E-3,639.999985695E-3,,,,,-28.75999920E-3,1.3220000,
,,,-28.71999890E-3,719.999969006E-3,,,,,-28.71999890E-3,1.3240001,
,,,-28.68000045E-3,639.999985695E-3,,,,,-28.68000045E-3,1.3220000,
,,,-28.64000015E-3,639.999985695E-3,,,,,-28.64000015E-3,1.3240001,
,,,-28.59999985E-3,639.999985695E-3,,,,,-28.59999985E-3,1.3260001,
,,,-28.55999954E-3,719.999969006E-3,,,,,-28.55999954E-3,1.3240001,
,,,-28.51999924E-3,639.999985695E-3,,,,,-28.51999924E-3,1.3240001,
,,,-28.47999893E-3,719.999969006E-3,,,,,-28.47999893E-3,1.3240001,
,,,-28.44000049E-3,719.999969006E-3,,,,,-28.44000049E-3,1.3240001,
,,,-28.40000018E-3,719.999969006E-3,,,,,-28.40000018E-3,1.3240001,
,,,-28.35999988E-3,719.999969006E-3,,,,,-28.35999988E-3,1.3260001,
,,,-28.31999958E-3,719.999969006E-3,,,,,-28.31999958E-3,1.3240001,
,,,-28.27999927E-3,719.999969006E-3,,,,,-28.27999927E-3,1.3260001,
,,,-28.23999897E-3,719.999969006E-3,,,,,-28.23999897E-3,1.3260001,
,,,-28.20000052E-3,719.999969006E-3,,,,,-28.20000052E-3,1.3260001,
,,,-28.16000022E-3,719.999969006E-3,,,,,-28.16000022E-3,1.3240001,
,,,-28.11999992E-3,719.999969006E-3,,,,,-28.11999992E-3,1.3260001,
,,,-28.07999961E-3,719.999969006E-3,,,,,-28.07999961E-3,1.3260001,
,,,-28.03999931E-3,719.999969006E-3,,,,,-28.03999931E-3,1.3240001,
,,,-27.99999900E-3,719.999969006E-3,,,,,-27.99999900E-3,1.3260001,
,,,-27.96000056E-3,719.999969006E-3,,,,,-27.96000056E-3,1.3260001,
,,,-27.92000026E-3,799.999952316E-3,,,,,-27.92000026E-3,1.3240001,
,,,-27.87999995E-3,719.999969006E-3,,,,,-27.87999995E-3,1.3260001,
,,,-27.83999965E-3,719.999969006E-3,,,,,-27.83999965E-3,1.3240001,
,,,-27.79999934E-3,799.999952316E-3,,,,,-27.79999934E-3,1.3260001,
,,,-27.75999904E-3,719.999969006E-3,,,,,-27.75999904E-3,1.3260001,
,,,-27.72000059E-3,799.999952316E-3,,,,,-27.72000059E-3,1.3260001,
,,,-27.68000029E-3,719.999969006E-3,,,,,-27.68000029E-3,1.3260001,
,,,-27.63999999E-3,799.999952316E-3,,,,,-27.63999999E-3,1.3260001,
,,,-27.59999968E-3,799.999952316E-3,,,,,-27.59999968E-3,1.3260001,
,,,-27.55999938E-3,799.999952316E-3,,,,,-27.55999938E-3,1.3260001,
,,,-27.51999907E-3,799.999952316E-3,,,,,-27.51999907E-3,1.3260001,
,,,-27.48000063E-3,799.999952316E-3,,,,,-27.48000063E-3,1.3260001,
,,,-27.44000033E-3,799.999952316E-3,,,,,-27.44000033E-3,1.3260001,
,,,-27.40000002E-3,799.999952316E-3,,,,,-27.40000002E-3,1.3260001,
,,,-27.35999972E-3,799.999952316E-3,,,,,-27.35999972E-3,1.3260001,
,,,-27.31999941E-3,799.999952316E-3,,,,,-27.31999941E-3,1.3260001,
,,,-27.27999911E-3,879.999995232E-3,,,,,-27.27999911E-3,1.3260001,
,,,-27.23999880E-3,799.999952316E-3,,,,,-27.23999880E-3,1.3260001,
,,,-27.20000036E-3,879.999995232E-3,,,,,-27.20000036E-3,1.3280001,
,,,-27.16000006E-3,799.999952316E-3,,,,,-27.16000006E-3,1.3260001,
,,,-27.11999975E-3,879.999995232E-3,,,,,-27.11999975E-3,1.3260001,
,,,-27.07999945E-3,799.999952316E-3,,,,,-27.07999945E-3,1.3260001,
,,,-27.03999914E-3,799.999952316E-3,,,,,-27.03999914E-3,1.3260001,
,,,-26.99999884E-3,799.999952316E-3,,,,,-26.99999884E-3,1.3260001,
,,,-26.96000040E-3,879.999995232E-3,,,,,-26.96000040E-3,1.3260001,
,,,-26.92000009E-3,879.999995232E-3,,,,,-26.92000009E-3,1.3260001,
,,,-26.87999979E-3,879.999995232E-3,,,,,-26.87999979E-3,1.3280001,
,,,-26.83999948E-3,879.999995232E-3,,,,,-26.83999948E-3,1.3260001,
,,,-26.79999918E-3,879.999995232E-3,,,,,-26.79999918E-3,1.3260001,
,,,-26.75999887E-3,879.999995232E-3,,,,,-26.75999887E-3,1.3260001,
,,,-26.72000043E-3,879.999995232E-3,,,,,-26.72000043E-3,1.3260001,
,,,-26.68000013E-3,879.999995232E-3,,,,,-26.68000013E-3,1.3280001,
,,,-26.63999982E-3,879.999995232E-3,,,,,-26.63999982E-3,1.3260001,
,,,-26.59999952E-3,879.999995232E-3,,,,,-26.59999952E-3,1.3280001,
,,,-26.55999921E-3,879.999995232E-3,,,,,-26.55999921E-3,1.3260001,
,,,-26.51999891E-3,879.999995232E-3,,,,,-26.51999891E-3,1.3300000,
,,,-26.48000047E-3,879.999995232E-3,,,,,-26.48000047E-3,1.3260001,
,,,-26.44000016E-3,879.999995232E-3,,,,,-26.44000016E-3,1.3260001,
,,,-26.39999986E-3,959.999978542E-3,,,,,-26.39999986E-3,1.3280001,
,,,-26.35999955E-3,959.999978542E-3,,,,,-26.35999955E-3,1.3260001,
,,,-26.31999925E-3,959.999978542E-3,,,,,-26.31999925E-3,1.3260001,
,,,-26.27999894E-3,959.999978542E-3,,,,,-26.27999894E-3,1.3260001,
,,,-26.24000050E-3,959.999978542E-3,,,,,-26.24000050E-3,1.3260001,
,,,-26.20000020E-3,959.999978542E-3,,,,,-26.20000020E-3,1.3280001,
,,,-26.15999989E-3,959.999978542E-3,,,,,-26.15999989E-3,1.3280001,
,,,-26.11999959E-3,959.999978542E-3,,,,,-26.11999959E-3,1.3280001,
,,,-26.07999928E-3,959.999978542E-3,,,,,-26.07999928E-3,1.3260001,
,,,-26.03999898E-3,959.999978542E-3,,,,,-26.03999898E-3,1.3260001,
,,,-26.00000054E-3,959.999978542E-3,,,,,-26.00000054E-3,1.3280001,
,,,-25.96000023E-3,959.999978542E-3,,,,,-25.96000023E-3,1.3280001,
,,,-25.91999993E-3,959.999978542E-3,,,,,-25.91999993E-3,1.3280001,
,,,-25.87999962E-3,959.999978542E-3,,,,,-25.87999962E-3,1.3260001,
,,,-25.83999932E-3,1.0400000,,,,,-25.83999932E-3,1.3260001,
,,,-25.79999901E-3,959.999978542E-3,,,,,-25.79999901E-3,1.3280001,
,,,-25.76000057E-3,959.999978542E-3,,,,,-25.76000057E-3,1.3260001,
,,,-25.72000027E-3,959.999978542E-3,,,,,-25.72000027E-3,1.3280001,
